<?xml version="1.0" encoding="UTF-8" standalone="no"?>
<svg
   xmlns:dc="http://purl.org/dc/elements/1.1/"
   xmlns:cc="http://creativecommons.org/ns#"
   xmlns:rdf="http://www.w3.org/1999/02/22-rdf-syntax-ns#"
   xmlns:svg="http://www.w3.org/2000/svg"
   xmlns="http://www.w3.org/2000/svg"
   xmlns:sodipodi="http://sodipodi.sourceforge.net/DTD/sodipodi-0.dtd"
   xmlns:inkscape="http://www.inkscape.org/namespaces/inkscape"
   version="1.1"
   inkscape:output_extension="org.inkscape.output.svg.inkscape"
   sodipodi:docname="interpolate-f13.svg"
   inkscape:version="1.0beta1 (08a003b, 2019-11-10)"
   sodipodi:version="0.32"
   viewBox="0 0 300 31"
   id="svg15699"
   height="31"
   width="300">
  <defs
     id="defs15701" />
  <sodipodi:namedview
     inkscape:lockguides="true"
     id="base"
     pagecolor="#ffffff"
     bordercolor="#666666"
     borderopacity="1.0"
     inkscape:pageopacity="0.0"
     inkscape:pageshadow="2"
     inkscape:zoom="1.4"
     inkscape:cx="324.77314"
     inkscape:cy="-2.7978518"
     inkscape:document-units="px"
     inkscape:current-layer="svg15699"
     inkscape:document-rotation="0"
     showgrid="false"
     units="px"
     showguides="true"
     inkscape:guide-bbox="true"
     inkscape:window-width="1866"
     inkscape:window-height="1016"
     inkscape:window-x="54"
     inkscape:window-y="27"
     inkscape:window-maximized="1" />
  <metadata
     id="metadata15704">
    <rdf:RDF>
      <cc:Work
         rdf:about="">
        <dc:format>image/svg+xml</dc:format>
        <dc:type
           rdf:resource="http://purl.org/dc/dcmitype/StillImage" />
        <dc:title></dc:title>
      </cc:Work>
    </rdf:RDF>
  </metadata>
  <g
     id="layer1"
     inkscape:groupmode="layer"
     inkscape:label="Layer 1">
    <g
       transform="translate(-14.035344,-18.39093)"
       id="g2760">
      <path
         inkscape:connector-curvature="0"
         style="fill:#00ff00;fill-opacity:1;stroke:#17a500;stroke-width:0.868842;stroke-linejoin:round;stroke-miterlimit:4;stroke-opacity:1"
         id="path6644"
         d="m 271.63329,45.832103 h -10.65338 l -5.3267,-9.2261 5.3267,-9.2261 h 10.65338 l 5.32669,9.2261 z" />
      <path
         inkscape:connector-curvature="0"
         style="fill:#00ff00;fill-opacity:1;stroke:#17a500;stroke-width:0.796746;stroke-linejoin:round;stroke-miterlimit:4;stroke-opacity:1"
         d="m 47.03267,47.010103 c 0,0 -3.49016,-3.2745 -3.620999,-3.2745 -0.06542,0 -0.78972,4.8295 -0.871493,4.8295 -0.08178,0 -2.393507,-4.1657 -2.480734,-4.1657 -0.08723,0 -2.283111,4.3928 -2.364887,4.3928 -0.08178,0 -0.986426,-4.6493 -1.051846,-4.6493 -0.130839,0 -3.580998,3.5263 -3.580998,3.5263 0,0 0.605319,-4.7533 0.539898,-4.8666 -0.03271,-0.0566 -4.358885,2.1917 -4.399772,2.1209 -0.04089,-0.0708 1.978166,-4.3946 1.934554,-4.4701 -0.04361,-0.0756 -4.880586,0.725 -4.921473,0.6542 -0.04089,-0.0708 3.195449,-3.5399 3.162738,-3.5965 -0.06542,-0.1133 -4.938528,-0.8368 -4.938528,-0.8368 0,0 4.20941,-2.3001 4.274831,-2.4134 0.03271,-0.0567 -4.322017,-2.2314 -4.28113,-2.3022 0.02044,-0.0355 4.690886,-0.9004 4.712352,-0.9375 0.02147,-0.0372 -3.483,-3.4379 -3.461193,-3.4757 0.02181,-0.0378 4.721344,0.5734 4.742809,0.5362 0.02147,-0.0372 -2.271889,-4.3618 -2.251445,-4.3972 0.04089,-0.0708 4.327303,1.9258 4.360015,1.8691 0.06542,-0.1133 -0.767102,-4.9822 -0.767102,-4.9822 0,0 3.490159,3.2745 3.620998,3.2745 0.06542,0 0.78972,-4.8295 0.871494,-4.8295 0.08177,0 2.393507,4.1658 2.480734,4.1658 0.08723,0 2.283111,-4.3929 2.364885,-4.3929 0.08178,0 0.986427,4.6493 1.051848,4.6493 0.130839,0 3.580995,-3.5262 3.580995,-3.5262 0,0 -0.605316,4.7533 -0.539898,4.8666 0.03271,0.0566 4.358887,-2.1918 4.399774,-2.121 0.04089,0.0709 -1.978168,4.3947 -1.934553,4.4702 0.02181,0.0378 4.836971,-0.8006 4.858436,-0.7634 0.02147,0.0372 -3.231905,3.4767 -3.211462,3.5121 0.04089,0.0708 4.908544,0.7849 4.941254,0.8415 0.06542,0.1133 -4.056764,2.4134 -4.056764,2.4134 0,0 4.349275,2.1842 4.283855,2.2975 -0.03271,0.0567 -4.72019,0.9511 -4.761077,1.0219 -0.02044,0.0354 3.484705,3.435 3.463238,3.4721 -0.02147,0.0372 -4.721003,-0.5739 -4.742809,-0.5362 -0.04361,0.0756 2.227255,4.4391 2.186368,4.51 -0.04089,0.0708 -4.327303,-1.9258 -4.360015,-1.8692 -0.06542,0.1134 0.767102,4.9822 0.767102,4.9822 0,0 0,0 0,0"
         id="path6646" />
      <g
         id="g6943"
         transform="matrix(0.5218716,0,0,0.5218716,14.289464,-641.00452)">
        <path
           inkscape:connector-curvature="0"
           style="fill:#00ff00;fill-opacity:1;stroke:#17a500;stroke-width:1.66486;stroke-linejoin:round;stroke-miterlimit:4;stroke-opacity:1"
           id="path6945"
           d="m 491.86242,1316.1094 c 0,0 -1.23392,-0.018 -3.07022,-0.018 -0.89744,0 -1.94692,0.027 -3.07192,0.027 -0.96639,0 -2.0036,-0.023 -3.04287,-0.023 -1.03956,0 -2.10538,0.024 -3.12996,0.024 -1.03858,0 -2.0515,-0.026 -2.98373,-0.026 -1.20817,0 -2.30728,0.02 -3.15998,0.02 -1.21887,0 -1.97241,-0.01 -1.97152,-0.018 5.9e-4,-0.01 -0.19814,-0.3543 -0.54089,-0.948 -0.36712,-0.6359 -0.92276,-1.5438 -1.55054,-2.6312 -0.46399,-0.8036 -0.96894,-1.7219 -1.51026,-2.6595 -0.50311,-0.8714 -1.05446,-1.7751 -1.57829,-2.6824 -0.50647,-0.8772 -0.99395,-1.7723 -1.47897,-2.6123 -0.55986,-0.9697 -1.11899,-1.8951 -1.5925,-2.7152 -0.64542,-1.1179 -1.15884,-2.0607 -1.50894,-2.6684 -0.28185,-0.4884 -0.44617,-0.7693 -0.45013,-0.7714 -0.007,0 0.39727,-0.7265 1.05893,-1.8726 0.41619,-0.7208 0.95613,-1.6157 1.52625,-2.6031 0.47932,-0.8302 0.97862,-1.748 1.5126,-2.6729 0.49051,-0.8495 1.01979,-1.7174 1.5164,-2.5775 0.52931,-0.9168 1.03827,-1.8447 1.52953,-2.6956 0.54188,-0.9386 1.07024,-1.8011 1.50648,-2.5567 0.93502,-1.6195 1.55156,-2.7182 1.55104,-2.7213 -4e-5,-2e-4 0.0126,-3e-4 0.0372,-3e-4 0.21844,0 1.40081,0.018 3.06958,0.018 0.89883,0 1.9479,-0.027 3.07129,-0.027 0.96699,0 2.00417,0.023 3.04286,0.023 1.04022,0 2.10621,-0.024 3.1304,-0.024 1.03966,0 2.05302,0.026 2.9848,0.026 1.21034,0 2.30956,-0.02 3.15911,-0.02 1.19736,0 1.93584,0.01 1.93495,0.017 -6.1e-4,0.01 0.20546,0.3674 0.55983,0.9812 0.37006,0.641 0.92513,1.548 1.5503,2.6308 0.4646,0.8047 0.96962,1.7231 1.51059,2.6601 0.49851,0.8635 1.04455,1.758 1.56305,2.656 0.50268,0.8707 0.98635,1.7591 1.46798,2.5933 0.55961,0.9693 1.11876,1.8947 1.59271,2.7156 0.61059,1.0576 1.10126,1.9602 1.45272,2.5689 0.32125,0.5564 0.5106,0.8799 0.51504,0.8822 0.007,0 -0.37216,0.6808 -0.99718,1.7633 -0.41686,0.722 -0.96493,1.631 -1.54728,2.6396 -0.47807,0.8281 -0.97706,1.7453 -1.51146,2.6709 -0.49018,0.849 -1.0197,1.7172 -1.5171,2.5788 -0.53705,0.9302 -1.0542,1.8722 -1.5531,2.7363 -0.54147,0.9379 -1.06996,1.8006 -1.50709,2.5578 -0.94546,1.6375 -1.56969,2.754 -1.56969,2.754 0,0 0,0 0,0" />
        <path
           inkscape:connector-curvature="0"
           style="fill:#00ff00;fill-opacity:1;stroke:#17a500;stroke-width:1.66486;stroke-linejoin:round;stroke-miterlimit:4;stroke-opacity:1"
           id="path6947"
           d="m 483.07925,1316.1554 c 0,0 -1.34555,-0.1463 -3.14939,-0.1463 -0.88164,0 -1.93805,0.2158 -3.04323,0.2158 -0.94981,0 -2.05647,-0.1861 -3.07788,-0.1861 -1.0217,0 -2.15184,0.1963 -3.15865,0.1963 -1.02053,0 -2.0482,-0.2078 -2.96392,-0.2078 -1.18857,0 -2.4005,0.1576 -3.23575,0.1576 -1.19392,0 -1.92334,-0.078 -1.91617,-0.1403 0.005,-0.041 -0.18688,-0.4131 -0.52363,-0.9964 -0.36089,-0.625 -1.07483,-1.4262 -1.69136,-2.4941 -0.4561,-0.79 -0.87153,-1.8591 -1.40348,-2.7804 -0.49452,-0.8566 -1.22429,-1.7103 -1.73901,-2.6019 -0.4977,-0.862 -0.84827,-1.8748 -1.32466,-2.6999 -0.55096,-0.9543 -1.28977,-1.889 -1.75359,-2.6924 -0.6322,-1.095 -0.97002,-2.1088 -1.31039,-2.7084 -0.27563,-0.4792 -0.45811,-0.7658 -0.48976,-0.7823 -0.0569,-0.03 0.26904,-0.7735 0.91819,-1.8979 0.40847,-0.7075 1.12053,-1.6179 1.67983,-2.5866 0.47035,-0.8147 0.82199,-1.847 1.34589,-2.7544 0.48133,-0.8337 1.18409,-1.6598 1.67138,-2.5039 0.51931,-0.8994 0.92791,-1.978 1.40992,-2.8128 0.5324,-0.9222 1.21805,-1.6887 1.64664,-2.431 0.91829,-1.5906 1.49382,-2.834 1.48961,-2.8588 -3e-4,0 0.0119,0 0.036,0 0.21397,0 1.50903,0.1464 3.14877,0.1464 0.883,0 1.939,-0.2159 3.0426,-0.2159 0.95041,0 2.05703,0.1862 3.07788,0.1862 1.02235,0 2.15264,-0.1963 3.15908,-0.1963 1.02158,0 2.04968,0.2078 2.96496,0.2078 1.1907,0 2.40274,-0.1576 3.2349,-0.1576 1.17285,0 1.88777,0.076 1.88062,0.1376 -0.005,0.042 0.19377,0.4282 0.54192,1.0312 0.36377,0.6301 1.07715,1.4303 1.69113,2.4938 0.45669,0.791 0.87218,1.8602 1.4038,2.781 0.48916,0.8472 1.21287,1.6905 1.7216,2.5717 0.49324,0.8543 0.83941,1.8594 1.31198,2.6779 0.54976,0.9523 1.28838,1.8867 1.75391,2.693 0.60066,1.0404 0.91961,2.0147 1.26388,2.611 0.31467,0.5451 0.52572,0.8748 0.56127,0.893 0.0563,0.029 -0.25173,0.7254 -0.86553,1.7885 -0.40961,0.7095 -1.13031,1.6349 -1.70234,2.6257 -0.46909,0.8124 -0.82039,1.8442 -1.3447,2.7523 -0.48098,0.8331 -1.18398,1.6596 -1.67206,2.505 -0.52777,0.9141 -0.94526,2.008 -1.43556,2.8572 -0.53199,0.9215 -1.21778,1.6882 -1.64724,2.4321 -0.92868,1.6085 -1.50748,2.893 -1.50748,2.893 0,0 0,0 0,0" />
        <path
           inkscape:connector-curvature="0"
           style="fill:#00ff00;fill-opacity:1;stroke:#17a500;stroke-width:1.66486;stroke-linejoin:round;stroke-miterlimit:4;stroke-opacity:1"
           id="path6949"
           d="m 459.23922,1316.2805 c 0,0 -1.64854,-0.4939 -3.3643,-0.4939 -0.83874,0 -1.91395,0.7284 -2.96533,0.7284 -0.90484,0 -2.19996,-0.6283 -3.17292,-0.6283 -0.97324,0 -2.27792,0.6626 -3.23651,0.6626 -0.97154,0 -2.03924,-0.7013 -2.91014,-0.7013 -1.13538,0 -2.65353,0.5319 -3.4414,0.5319 -1.12621,0 -1.79018,-0.2625 -1.76596,-0.4736 0.0158,-0.1378 -0.15634,-0.5724 -0.4768,-1.1275 -0.34397,-0.5958 -1.48758,-1.1072 -2.07359,-2.1222 -0.43468,-0.7529 -0.60712,-2.2312 -1.11363,-3.1085 -0.47122,-0.8162 -1.68528,-1.5345 -2.17524,-2.3832 -0.47392,-0.8208 -0.45289,-2.1532 -0.90581,-2.9376 -0.52682,-0.9125 -1.75333,-1.8729 -2.19085,-2.6307 -0.59634,-1.0329 -0.45753,-2.2391 -0.77149,-2.8171 -0.25872,-0.4542 -0.49049,-0.7562 -0.59733,-0.8118 -0.19206,-0.1 -0.079,-0.901 0.5362,-1.9665 0.38753,-0.6712 1.56678,-1.624 2.09669,-2.5419 0.446,-0.7725 0.39684,-2.1158 0.8934,-2.9759 0.45639,-0.7905 1.63004,-1.5033 2.09202,-2.3035 0.4922,-0.8525 0.62838,-2.3399 1.08528,-3.1312 0.50664,-0.8776 1.61925,-1.3837 2.02709,-2.0901 0.87285,-1.5118 1.33706,-3.1481 1.32284,-3.2316 -9.9e-4,-0.01 0.0102,-0.01 0.0329,-0.01 0.20183,0 1.80275,0.4939 3.36371,0.4939 0.84002,0 1.91485,-0.7284 2.96475,-0.7284 0.90539,0 2.20048,0.6283 3.17291,0.6283 0.97385,0 2.27868,-0.6626 3.23693,-0.6626 0.97253,0 2.04063,0.7013 2.91111,0.7013 1.13739,0 2.65564,-0.5319 3.4406,-0.5319 1.10633,0 1.75729,0.2552 1.73317,0.4647 -0.0163,0.1417 0.16203,0.593 0.4933,1.1668 0.34669,0.6005 1.48978,1.111 2.07337,2.1218 0.43524,0.7539 0.60774,2.2323 1.11394,3.1091 0.46379,0.8033 1.66976,1.5077 2.15197,2.3429 0.46759,0.8099 0.44056,2.1318 0.88855,2.9077 0.52303,0.906 1.74876,1.865 2.19144,2.6317 0.57371,0.9937 0.42658,2.1628 0.75132,2.7253 0.29682,0.5141 0.56677,0.8607 0.68674,0.9222 0.18987,0.097 0.0752,0.8464 -0.50818,1.8568 -0.38993,0.6754 -1.57919,1.6455 -2.12322,2.5878 -0.44471,0.7703 -0.39515,2.1129 -0.89205,2.9736 -0.45604,0.7899 -1.62991,1.5031 -2.09267,2.3046 -0.50258,0.8705 -0.6496,2.3766 -1.11653,3.1854 -0.50626,0.8768 -1.61899,1.3831 -2.02766,2.091 -0.88312,1.5296 -1.33861,3.2704 -1.33861,3.2704 0,0 0,0 0,0" />
        <path
           inkscape:connector-curvature="0"
           style="fill:#00ff00;fill-opacity:1;stroke:#17a500;stroke-width:1.66486;stroke-linejoin:round;stroke-miterlimit:4;stroke-opacity:1"
           id="path6951"
           d="m 412.8139,1316.524 c 0,0 -2.23858,-1.1708 -3.7828,-1.1708 -0.75521,0 -1.86703,1.7268 -2.81365,1.7268 -0.81724,0 -2.47938,-1.4895 -3.35799,-1.4895 -0.87886,0 -2.52345,1.5707 -3.38815,1.5707 -0.87613,0 -2.02179,-1.6624 -2.80538,-1.6624 -1.0318,0 -3.14628,1.2608 -3.84191,1.2608 -0.99434,0 -1.53083,-0.6222 -1.47343,-1.1227 0.0375,-0.3266 -0.0969,-0.8827 -0.38559,-1.3828 -0.31103,-0.5387 -2.29138,-0.4858 -2.81794,-1.3978 -0.39295,-0.6806 -0.0922,-2.956 -0.5492,-3.7475 -0.42583,-0.7376 -2.58297,-1.1922 -3.02474,-1.9574 -0.4276,-0.7406 0.31708,-2.6952 -0.0901,-3.4006 -0.47982,-0.831 -2.65606,-1.8413 -3.04235,-2.5103 -0.52652,-0.912 0.54047,-2.4931 0.27796,-3.0288 -0.22581,-0.4056 -0.55358,-0.7374 -0.80681,-0.8692 -0.45526,-0.237 -0.75675,-1.1493 -0.20769,-2.1003 0.34673,-0.6006 2.43578,-1.6359 2.90846,-2.4546 0.3986,-0.6904 -0.43108,-2.6394 0.0122,-3.4073 0.40785,-0.7064 2.49847,-1.1987 2.91118,-1.9135 0.43938,-0.761 0.0451,-3.0445 0.45306,-3.7511 0.4565,-0.7907 2.40055,-0.7896 2.76797,-1.426 0.78437,-1.3586 1.03181,-3.76 0.9981,-3.9578 -0.002,-0.014 0.007,-0.021 0.0268,-0.021 0.1782,0 2.37473,1.1708 3.78228,1.1708 0.75634,0 1.86783,-1.7268 2.81314,-1.7268 0.81773,0 2.47984,1.4895 3.35799,1.4895 0.87939,0 2.52411,-1.5707 3.38851,-1.5707 0.877,0 2.02301,1.6623 2.80625,1.6623 1.03356,0 3.14813,-1.2607 3.84118,-1.2607 0.9768,0 1.5032,0.6048 1.44602,1.1014 -0.0387,0.3358 0.10022,0.914 0.39863,1.4309 0.31343,0.5429 2.29331,0.4892 2.81775,1.3975 0.39345,0.6815 0.0927,2.9569 0.54946,3.748 0.41438,0.7177 2.55949,1.1515 2.99006,1.8973 0.41765,0.7234 -0.33615,2.6622 0.064,3.3553 0.47096,0.8157 2.6453,1.8227 3.04349,2.5123 0.5212,0.9028 -0.53356,2.451 -0.24684,2.9476 0.26206,0.4539 0.64671,0.8334 0.93109,0.9793 0.45006,0.2308 0.71173,1.0822 0.18769,1.9899 -0.35161,0.609 -2.45331,1.6662 -2.94282,2.514 -0.39722,0.688 0.43296,2.6362 -0.0106,3.4045 -0.40745,0.7057 -2.49828,1.1983 -2.91175,1.9144 -0.45352,0.7855 -0.0738,3.0943 -0.49526,3.8243 -0.45615,0.7901 -2.40031,0.7891 -2.76847,1.4268 -0.79439,1.3759 -1.00976,4.0053 -1.00976,4.0053 0,0 0,0 0,0" />
        <path
           inkscape:connector-curvature="0"
           style="fill:#00ff00;fill-opacity:1;stroke:#17a500;stroke-width:1.66486;stroke-linejoin:round;stroke-miterlimit:4;stroke-opacity:1"
           id="path6953"
           d="m 336.27486,1316.9254 c 0,0 -3.21134,-2.2866 -4.47275,-2.2866 -0.61751,0 -1.78968,3.3725 -2.5636,3.3725 -0.67282,0 -2.94005,-2.909 -3.66311,-2.909 -0.72324,0 -2.92823,3.0676 -3.63814,3.0676 -0.71883,0 -1.99301,-3.2467 -2.63269,-3.2467 -0.86102,0 -3.95864,2.4625 -4.50217,2.4625 -0.77694,0 -1.10329,-1.2154 -0.99117,-2.1928 0.0732,-0.6379 10e-4,-1.3943 -0.23521,-1.8038 -0.25674,-0.4447 -3.61655,0.5386 -4.04512,-0.2037 -0.32417,-0.5614 0.75671,-4.1508 0.38136,-4.8009 -0.351,-0.6079 -4.06295,-0.6277 -4.42527,-1.2553 -0.35124,-0.6083 1.58649,-3.589 1.2546,-4.1639 -0.40232,-0.6968 -4.14434,-1.7892 -4.44617,-2.312 -0.41141,-0.7126 2.18583,-2.9116 2.00812,-3.3777 -0.17154,-0.3254 -0.65757,-0.7065 -1.15216,-0.9639 -0.88918,-0.4628 -1.87413,-1.5587 -1.43411,-2.3209 0.27949,-0.4841 3.86848,-1.6554 4.24681,-2.3106 0.32044,-0.5551 -1.79604,-3.5027 -1.44052,-4.1185 0.32782,-0.5678 3.93022,-0.6964 4.26169,-1.2705 0.35231,-0.6102 -0.91659,-4.2062 -0.58924,-4.7732 0.37382,-0.6475 3.68862,0.1899 3.98941,-0.3311 0.63851,-1.1059 0.52856,-4.7687 0.46272,-5.1551 -0.005,-0.027 10e-4,-0.041 0.0167,-0.041 0.13924,0 3.31772,2.2866 4.47234,2.2866 0.61839,0 1.79031,-3.3725 2.5632,-3.3725 0.6732,0 2.94041,2.9091 3.6631,2.9091 0.72367,0 2.92876,-3.0676 3.63842,-3.0676 0.71952,0 1.99398,3.2466 2.63337,3.2466 0.86241,0 3.96009,-2.4624 4.50162,-2.4624 0.76323,0 1.08429,1.1813 0.97261,2.1512 -0.0755,0.656 -0.002,1.4433 0.24253,1.8663 0.25861,0.448 3.61806,-0.536 4.04497,0.2034 0.32456,0.5622 -0.75628,4.1516 -0.38115,4.8013 0.33291,0.5766 4.02634,0.5644 4.37176,1.1626 0.33533,0.5809 -1.61666,3.5368 -1.29546,4.0932 0.38512,0.667 4.12337,1.753 4.4482,2.3156 0.43466,0.7528 -2.11648,2.9262 -1.89245,3.3142 0.20477,0.3547 0.77851,0.7884 1.33394,1.0732 0.87902,0.4509 1.76122,1.471 1.33496,2.2093 -0.28844,0.4996 -3.89445,1.7004 -4.29406,2.3925 -0.31894,0.5525 1.79821,3.4989 1.44265,4.1147 -0.32736,0.5671 -3.92992,0.6959 -4.26213,1.2713 -0.37263,0.6454 0.87543,4.2775 0.52901,4.8776 -0.37356,0.647 -3.68844,-0.1902 -3.98981,0.3317 -0.64811,1.1226 -0.46761,5.2169 -0.46761,5.2169 0,0 0,0 0,0" />
        <path
           inkscape:connector-curvature="0"
           style="fill:#00ff00;fill-opacity:1;stroke:#17a500;stroke-width:1.66486;stroke-linejoin:round;stroke-miterlimit:4;stroke-opacity:1"
           id="path6955"
           d="m 222.09366,1317.5243 c 0,0 -4.66251,-3.9513 -5.50202,-3.9513 -0.41207,0 -1.67429,5.8277 -2.19056,5.8277 -0.45737,0 -3.62728,-5.0268 -4.11828,-5.0268 -0.49111,0 -3.5321,5.3008 -4.01108,5.3008 -0.48418,0 -1.95008,-5.6102 -2.37507,-5.6102 -0.60626,0 -5.17052,4.2551 -5.48717,4.2551 -0.45262,0 -0.46546,-2.1001 -0.27172,-3.7891 0.12644,-1.1022 0.14752,-2.1574 -0.0109,-2.4318 -0.17573,-0.3044 -5.59344,2.0669 -5.87582,1.5778 -0.22155,-0.3837 2.02312,-5.9333 1.76957,-6.3724 -0.23937,-0.4146 -6.2708,0.2142 -6.51458,-0.208 -0.23733,-0.4111 3.48019,-4.9223 3.26068,-5.3026 -0.28671,-0.4965 -6.36456,-1.7116 -6.5404,-2.0162 -0.23967,-0.4151 4.6404,-3.536 4.58919,-3.8981 -0.0906,-0.2058 -0.8127,-0.6605 -1.66735,-1.1053 -1.53651,-0.7997 -3.54105,-2.1694 -3.26369,-2.6498 0.17918,-0.3104 6.00577,-1.6846 6.24334,-2.096 0.20385,-0.3531 -3.83227,-4.7904 -3.60771,-5.1794 0.20841,-0.361 6.0661,0.053 6.27637,-0.3112 0.22242,-0.3853 -2.3512,-5.9394 -2.14414,-6.298 0.25048,-0.4338 5.61017,1.651 5.81156,1.3022 0.42091,-0.729 -0.2222,-6.2735 -0.33597,-6.9412 -0.008,-0.046 -0.007,-0.071 0.002,-0.071 0.0811,0 4.72449,3.9512 5.50179,3.9512 0.41258,0 1.67465,-5.8277 2.19032,-5.8277 0.45759,0 3.6275,5.0268 4.11828,5.0268 0.49136,0 3.53241,-5.3008 4.01124,-5.3008 0.48458,0 1.95064,5.6103 2.37547,5.6103 0.60706,0 5.17136,-4.2551 5.48684,-4.2551 0.44463,0 0.45937,2.0412 0.26638,3.7173 -0.13052,1.1335 -0.15371,2.2328 0.01,2.5158 0.17683,0.3063 5.59433,-2.0654 5.87574,-1.578 0.22178,0.3842 -2.02287,5.9337 -1.76944,6.3727 0.21138,0.3661 6.21458,-0.3116 6.43298,0.067 0.21252,0.3681 -3.52693,4.8413 -3.32346,5.1938 0.25707,0.4452 6.32836,1.649 6.54376,2.0221 0.30555,0.5292 -4.47789,3.6351 -4.34738,3.8611 0.11929,0.2067 0.97512,0.7213 1.93491,1.2135 1.51895,0.779 3.32684,2.0509 3.04645,2.5365 -0.1942,0.3364 -6.04434,1.7513 -6.30984,2.2112 -0.20216,0.3502 3.8349,4.7859 3.6106,5.1744 -0.20789,0.3601 -6.06566,-0.054 -6.27664,0.3116 -0.25196,0.4365 2.29152,6.0428 2.057,6.449 -0.25032,0.4335 -5.61006,-1.6512 -5.81179,-1.3018 -0.4299,0.7446 0.34116,7.0243 0.34116,7.0243 0,0 0,0 0,0" />
      </g>
    </g>
  </g>
</svg>
