<?xml version="1.0" encoding="UTF-8" standalone="no"?>
<svg
   xmlns:dc="http://purl.org/dc/elements/1.1/"
   xmlns:cc="http://creativecommons.org/ns#"
   xmlns:rdf="http://www.w3.org/1999/02/22-rdf-syntax-ns#"
   xmlns:svg="http://www.w3.org/2000/svg"
   xmlns="http://www.w3.org/2000/svg"
   xmlns:sodipodi="http://sodipodi.sourceforge.net/DTD/sodipodi-0.dtd"
   xmlns:inkscape="http://www.inkscape.org/namespaces/inkscape"
   sodipodi:docname="basic-f16.svg"
   inkscape:version="1.0beta1 (a4ee55bc41, 2019-11-15)"
   sodipodi:version="0.32"
   id="svg2928"
   viewBox="0 0 300 50"
   height="50"
   width="300"
   version="1.1">
  <defs
     id="defs3" />
  <sodipodi:namedview
     inkscape:window-maximized="1"
     inkscape:window-y="27"
     inkscape:window-x="54"
     inkscape:window-height="1016"
     inkscape:window-width="1866"
     inkscape:guide-bbox="true"
     showguides="true"
     units="px"
     showgrid="false"
     inkscape:document-rotation="0"
     inkscape:current-layer="svg2928"
     inkscape:document-units="px"
     inkscape:cy="25"
     inkscape:cx="150"
     inkscape:zoom="1.979899"
     inkscape:pageshadow="2"
     inkscape:pageopacity="0.0"
     borderopacity="1.0"
     bordercolor="#666666"
     pagecolor="#ffffff"
     id="base"
     inkscape:lockguides="true" />
  <metadata
     id="metadata4">
    <rdf:RDF>
      <cc:Work
         rdf:about="">
        <dc:format>image/svg+xml</dc:format>
        <dc:type
           rdf:resource="http://purl.org/dc/dcmitype/StillImage" />
        <dc:title />
      </cc:Work>
    </rdf:RDF>
  </metadata>
  <g
     id="layer1"
     inkscape:groupmode="layer"
     inkscape:label="Layer 1">
    <rect
       style="color:#000000;clip-rule:nonzero;display:inline;overflow:visible;visibility:visible;opacity:0.924;isolation:auto;color-interpolation:sRGB;color-interpolation-filters:linearRGB;fill:#204a87;fill-opacity:1;fill-rule:nonzero;stroke:none;stroke-width:40;stroke-miterlimit:4;stroke-dasharray:160, 40;stroke-dashoffset:0;marker:none;marker-start:none;marker-mid:none;marker-end:none;color-rendering:auto;image-rendering:auto;shape-rendering:auto;text-rendering:auto;enable-background:accumulate"
       id="rect4101"
       width="15.152289"
       height="14.20527"
       x="69.692879"
       y="0"
       rx="0"
       ry="0" />
    <rect
       style="color:#000000;clip-rule:nonzero;display:inline;overflow:visible;visibility:visible;opacity:0.924;isolation:auto;color-interpolation:sRGB;color-interpolation-filters:linearRGB;fill:#204a87;fill-opacity:1;fill-rule:nonzero;stroke:none;stroke-width:40;stroke-miterlimit:4;stroke-dasharray:160, 40;stroke-dashoffset:0;marker:none;marker-start:none;marker-mid:none;marker-end:none;color-rendering:auto;image-rendering:auto;shape-rendering:auto;text-rendering:auto;enable-background:accumulate"
       id="rect4105"
       width="15.152289"
       height="14.20527"
       x="69.692879"
       y="17.67767"
       rx="0"
       ry="0" />
    <rect
       style="color:#000000;clip-rule:nonzero;display:inline;overflow:visible;visibility:visible;opacity:0.924;isolation:auto;color-interpolation:sRGB;color-interpolation-filters:linearRGB;fill:#204a87;fill-opacity:1;fill-rule:nonzero;stroke:none;stroke-width:40;stroke-miterlimit:4;stroke-dasharray:160, 40;stroke-dashoffset:0;marker:none;marker-start:none;marker-mid:none;marker-end:none;color-rendering:auto;image-rendering:auto;shape-rendering:auto;text-rendering:auto;enable-background:accumulate"
       id="rect4107"
       width="15.152289"
       height="14.20527"
       x="69.692879"
       y="34.850262"
       rx="0"
       ry="0" />
    <rect
       style="color:#000000;clip-rule:nonzero;display:inline;overflow:visible;visibility:visible;opacity:0.924;isolation:auto;color-interpolation:sRGB;color-interpolation-filters:linearRGB;fill:#204a87;fill-opacity:1;fill-rule:nonzero;stroke:none;stroke-width:40;stroke-miterlimit:4;stroke-dasharray:160, 40;stroke-dashoffset:0;marker:none;marker-start:none;marker-mid:none;marker-end:none;color-rendering:auto;image-rendering:auto;shape-rendering:auto;text-rendering:auto;enable-background:accumulate"
       id="rect4115"
       width="15.152289"
       height="14.20527"
       x="88.885773"
       y="0"
       rx="0"
       ry="0" />
    <rect
       style="color:#000000;clip-rule:nonzero;display:inline;overflow:visible;visibility:visible;opacity:0.924;isolation:auto;color-interpolation:sRGB;color-interpolation-filters:linearRGB;fill:#204a87;fill-opacity:1;fill-rule:nonzero;stroke:none;stroke-width:40;stroke-miterlimit:4;stroke-dasharray:160, 40;stroke-dashoffset:0;marker:none;marker-start:none;marker-mid:none;marker-end:none;color-rendering:auto;image-rendering:auto;shape-rendering:auto;text-rendering:auto;enable-background:accumulate"
       id="rect4121"
       width="15.152289"
       height="14.20527"
       x="107.57359"
       y="0"
       rx="0"
       ry="0" />
    <rect
       style="color:#000000;clip-rule:nonzero;display:inline;overflow:visible;visibility:visible;opacity:0.924;isolation:auto;color-interpolation:sRGB;color-interpolation-filters:linearRGB;fill:#204a87;fill-opacity:1;fill-rule:nonzero;stroke:none;stroke-width:40;stroke-miterlimit:4;stroke-dasharray:160, 40;stroke-dashoffset:0;marker:none;marker-start:none;marker-mid:none;marker-end:none;color-rendering:auto;image-rendering:auto;shape-rendering:auto;text-rendering:auto;enable-background:accumulate"
       id="rect4127"
       width="15.152289"
       height="14.20527"
       x="125.75634"
       y="0"
       rx="0"
       ry="0" />
    <rect
       style="color:#000000;clip-rule:nonzero;display:inline;overflow:visible;visibility:visible;opacity:0.924;isolation:auto;color-interpolation:sRGB;color-interpolation-filters:linearRGB;fill:#204a87;fill-opacity:1;fill-rule:nonzero;stroke:none;stroke-width:40;stroke-miterlimit:4;stroke-dasharray:160, 40;stroke-dashoffset:0;marker:none;marker-start:none;marker-mid:none;marker-end:none;color-rendering:auto;image-rendering:auto;shape-rendering:auto;text-rendering:auto;enable-background:accumulate"
       id="rect4133"
       width="15.152289"
       height="14.20527"
       x="143.43402"
       y="0"
       rx="0"
       ry="0" />
    <rect
       style="color:#000000;clip-rule:nonzero;display:inline;overflow:visible;visibility:visible;opacity:0.924;isolation:auto;color-interpolation:sRGB;color-interpolation-filters:linearRGB;fill:#204a87;fill-opacity:1;fill-rule:nonzero;stroke:none;stroke-width:40;stroke-miterlimit:4;stroke-dasharray:160, 40;stroke-dashoffset:0;marker:none;marker-start:none;marker-mid:none;marker-end:none;color-rendering:auto;image-rendering:auto;shape-rendering:auto;text-rendering:auto;enable-background:accumulate"
       id="rect4139"
       width="15.152289"
       height="14.20527"
       x="161.61674"
       y="0"
       rx="0"
       ry="0" />
    <rect
       style="color:#000000;clip-rule:nonzero;display:inline;overflow:visible;visibility:visible;opacity:0.924;isolation:auto;color-interpolation:sRGB;color-interpolation-filters:linearRGB;fill:#204a87;fill-opacity:1;fill-rule:nonzero;stroke:none;stroke-width:40;stroke-miterlimit:4;stroke-dasharray:160, 40;stroke-dashoffset:0;marker:none;marker-start:none;marker-mid:none;marker-end:none;color-rendering:auto;image-rendering:auto;shape-rendering:auto;text-rendering:auto;enable-background:accumulate"
       id="rect4145"
       width="15.152289"
       height="14.20527"
       x="180.30457"
       y="0"
       rx="0"
       ry="0" />
    <rect
       style="color:#000000;clip-rule:nonzero;display:inline;overflow:visible;visibility:visible;opacity:0.924;isolation:auto;color-interpolation:sRGB;color-interpolation-filters:linearRGB;fill:#4e9a06;fill-opacity:1;fill-rule:nonzero;stroke:none;stroke-width:40;stroke-miterlimit:4;stroke-dasharray:160, 40;stroke-dashoffset:0;marker:none;marker-start:none;marker-mid:none;marker-end:none;color-rendering:auto;image-rendering:auto;shape-rendering:auto;text-rendering:auto;enable-background:accumulate"
       id="rect4151"
       width="15.152289"
       height="14.20527"
       x="197.98224"
       y="0"
       rx="0"
       ry="0" />
    <rect
       ry="0"
       rx="0"
       y="0"
       x="216.16499"
       height="14.20527"
       width="15.152289"
       id="rect4109"
       style="color:#000000;clip-rule:nonzero;display:inline;overflow:visible;visibility:visible;opacity:0.924;isolation:auto;color-interpolation:sRGB;color-interpolation-filters:linearRGB;fill:#204a87;fill-opacity:1;fill-rule:nonzero;stroke:none;stroke-width:40;stroke-miterlimit:4;stroke-dasharray:160, 40;stroke-dashoffset:0;marker:none;marker-start:none;marker-mid:none;marker-end:none;color-rendering:auto;image-rendering:auto;shape-rendering:auto;text-rendering:auto;enable-background:accumulate" />
    <rect
       style="color:#000000;clip-rule:nonzero;display:inline;overflow:visible;visibility:visible;opacity:0.924;isolation:auto;color-interpolation:sRGB;color-interpolation-filters:linearRGB;fill:#4e9a06;fill-opacity:1;fill-rule:nonzero;stroke:none;stroke-width:40;stroke-miterlimit:4;stroke-dasharray:160, 40;stroke-dashoffset:0;marker:none;marker-start:none;marker-mid:none;marker-end:none;color-rendering:auto;image-rendering:auto;shape-rendering:auto;text-rendering:auto;enable-background:accumulate"
       id="rect4117"
       width="15.152289"
       height="14.20527"
       x="88.885773"
       y="17.67767"
       rx="0"
       ry="0" />
    <rect
       style="color:#000000;clip-rule:nonzero;display:inline;overflow:visible;visibility:visible;opacity:0.924;isolation:auto;color-interpolation:sRGB;color-interpolation-filters:linearRGB;fill:#4e9a06;fill-opacity:1;fill-rule:nonzero;stroke:none;stroke-width:40;stroke-miterlimit:4;stroke-dasharray:160, 40;stroke-dashoffset:0;marker:none;marker-start:none;marker-mid:none;marker-end:none;color-rendering:auto;image-rendering:auto;shape-rendering:auto;text-rendering:auto;enable-background:accumulate"
       id="rect4123"
       width="15.152289"
       height="14.20527"
       x="107.57359"
       y="17.67767"
       rx="0"
       ry="0" />
    <rect
       style="color:#000000;clip-rule:nonzero;display:inline;overflow:visible;visibility:visible;opacity:0.924;isolation:auto;color-interpolation:sRGB;color-interpolation-filters:linearRGB;fill:#4e9a06;fill-opacity:1;fill-rule:nonzero;stroke:none;stroke-width:40;stroke-miterlimit:4;stroke-dasharray:160, 40;stroke-dashoffset:0;marker:none;marker-start:none;marker-mid:none;marker-end:none;color-rendering:auto;image-rendering:auto;shape-rendering:auto;text-rendering:auto;enable-background:accumulate"
       id="rect4129"
       width="15.152289"
       height="14.20527"
       x="125.75634"
       y="17.67767"
       rx="0"
       ry="0" />
    <rect
       style="color:#000000;clip-rule:nonzero;display:inline;overflow:visible;visibility:visible;opacity:0.924;isolation:auto;color-interpolation:sRGB;color-interpolation-filters:linearRGB;fill:#4e9a06;fill-opacity:1;fill-rule:nonzero;stroke:none;stroke-width:40;stroke-miterlimit:4;stroke-dasharray:160, 40;stroke-dashoffset:0;marker:none;marker-start:none;marker-mid:none;marker-end:none;color-rendering:auto;image-rendering:auto;shape-rendering:auto;text-rendering:auto;enable-background:accumulate"
       id="rect4135"
       width="15.152289"
       height="14.20527"
       x="143.43402"
       y="17.67767"
       rx="0"
       ry="0" />
    <rect
       style="color:#000000;clip-rule:nonzero;display:inline;overflow:visible;visibility:visible;opacity:0.924;isolation:auto;color-interpolation:sRGB;color-interpolation-filters:linearRGB;fill:#204a87;fill-opacity:1;fill-rule:nonzero;stroke:none;stroke-width:40;stroke-miterlimit:4;stroke-dasharray:160, 40;stroke-dashoffset:0;marker:none;marker-start:none;marker-mid:none;marker-end:none;color-rendering:auto;image-rendering:auto;shape-rendering:auto;text-rendering:auto;enable-background:accumulate"
       id="rect4141"
       width="15.152289"
       height="14.20527"
       x="161.61674"
       y="17.67767"
       rx="0"
       ry="0" />
    <rect
       style="color:#000000;clip-rule:nonzero;display:inline;overflow:visible;visibility:visible;opacity:0.924;isolation:auto;color-interpolation:sRGB;color-interpolation-filters:linearRGB;fill:#204a87;fill-opacity:1;fill-rule:nonzero;stroke:none;stroke-width:40;stroke-miterlimit:4;stroke-dasharray:160, 40;stroke-dashoffset:0;marker:none;marker-start:none;marker-mid:none;marker-end:none;color-rendering:auto;image-rendering:auto;shape-rendering:auto;text-rendering:auto;enable-background:accumulate"
       id="rect4147"
       width="15.152289"
       height="14.20527"
       x="180.30457"
       y="17.67767"
       rx="0"
       ry="0" />
    <rect
       style="color:#000000;clip-rule:nonzero;display:inline;overflow:visible;visibility:visible;opacity:0.924;isolation:auto;color-interpolation:sRGB;color-interpolation-filters:linearRGB;fill:#4e9a06;fill-opacity:1;fill-rule:nonzero;stroke:none;stroke-width:40;stroke-miterlimit:4;stroke-dasharray:160, 40;stroke-dashoffset:0;marker:none;marker-start:none;marker-mid:none;marker-end:none;color-rendering:auto;image-rendering:auto;shape-rendering:auto;text-rendering:auto;enable-background:accumulate"
       id="rect4153"
       width="15.152289"
       height="14.20527"
       x="197.98224"
       y="17.67767"
       rx="0"
       ry="0" />
    <rect
       ry="0"
       rx="0"
       y="17.67767"
       x="216.16499"
       height="14.20527"
       width="15.152289"
       id="rect4111"
       style="color:#000000;clip-rule:nonzero;display:inline;overflow:visible;visibility:visible;opacity:0.924;isolation:auto;color-interpolation:sRGB;color-interpolation-filters:linearRGB;fill:#204a87;fill-opacity:1;fill-rule:nonzero;stroke:none;stroke-width:40;stroke-miterlimit:4;stroke-dasharray:160, 40;stroke-dashoffset:0;marker:none;marker-start:none;marker-mid:none;marker-end:none;color-rendering:auto;image-rendering:auto;shape-rendering:auto;text-rendering:auto;enable-background:accumulate" />
    <rect
       style="color:#000000;clip-rule:nonzero;display:inline;overflow:visible;visibility:visible;opacity:0.924;isolation:auto;color-interpolation:sRGB;color-interpolation-filters:linearRGB;fill:#4e9a06;fill-opacity:1;fill-rule:nonzero;stroke:none;stroke-width:40;stroke-miterlimit:4;stroke-dasharray:160, 40;stroke-dashoffset:0;marker:none;marker-start:none;marker-mid:none;marker-end:none;color-rendering:auto;image-rendering:auto;shape-rendering:auto;text-rendering:auto;enable-background:accumulate"
       id="rect4119"
       width="15.152289"
       height="14.20527"
       x="88.885773"
       y="34.850262"
       rx="0"
       ry="0" />
    <rect
       style="color:#000000;clip-rule:nonzero;display:inline;overflow:visible;visibility:visible;opacity:0.924;isolation:auto;color-interpolation:sRGB;color-interpolation-filters:linearRGB;fill:#204a87;fill-opacity:1;fill-rule:nonzero;stroke:none;stroke-width:40;stroke-miterlimit:4;stroke-dasharray:160, 40;stroke-dashoffset:0;marker:none;marker-start:none;marker-mid:none;marker-end:none;color-rendering:auto;image-rendering:auto;shape-rendering:auto;text-rendering:auto;enable-background:accumulate"
       id="rect4125"
       width="15.152289"
       height="14.20527"
       x="107.57359"
       y="34.850262"
       rx="0"
       ry="0" />
    <rect
       style="color:#000000;clip-rule:nonzero;display:inline;overflow:visible;visibility:visible;opacity:0.924;isolation:auto;color-interpolation:sRGB;color-interpolation-filters:linearRGB;fill:#204a87;fill-opacity:1;fill-rule:nonzero;stroke:none;stroke-width:40;stroke-miterlimit:4;stroke-dasharray:160, 40;stroke-dashoffset:0;marker:none;marker-start:none;marker-mid:none;marker-end:none;color-rendering:auto;image-rendering:auto;shape-rendering:auto;text-rendering:auto;enable-background:accumulate"
       id="rect4131"
       width="15.152289"
       height="14.20527"
       x="125.75634"
       y="34.850262"
       rx="0"
       ry="0" />
    <rect
       style="color:#000000;clip-rule:nonzero;display:inline;overflow:visible;visibility:visible;opacity:0.924;isolation:auto;color-interpolation:sRGB;color-interpolation-filters:linearRGB;fill:#4e9a06;fill-opacity:1;fill-rule:nonzero;stroke:none;stroke-width:40;stroke-miterlimit:4;stroke-dasharray:160, 40;stroke-dashoffset:0;marker:none;marker-start:none;marker-mid:none;marker-end:none;color-rendering:auto;image-rendering:auto;shape-rendering:auto;text-rendering:auto;enable-background:accumulate"
       id="rect4137"
       width="15.152289"
       height="14.20527"
       x="143.43402"
       y="34.850262"
       rx="0"
       ry="0" />
    <rect
       style="color:#000000;clip-rule:nonzero;display:inline;overflow:visible;visibility:visible;opacity:0.924;isolation:auto;color-interpolation:sRGB;color-interpolation-filters:linearRGB;fill:#204a87;fill-opacity:1;fill-rule:nonzero;stroke:none;stroke-width:40;stroke-miterlimit:4;stroke-dasharray:160, 40;stroke-dashoffset:0;marker:none;marker-start:none;marker-mid:none;marker-end:none;color-rendering:auto;image-rendering:auto;shape-rendering:auto;text-rendering:auto;enable-background:accumulate"
       id="rect4143"
       width="15.152289"
       height="14.20527"
       x="161.61674"
       y="34.850262"
       rx="0"
       ry="0" />
    <rect
       style="color:#000000;clip-rule:nonzero;display:inline;overflow:visible;visibility:visible;opacity:0.924;isolation:auto;color-interpolation:sRGB;color-interpolation-filters:linearRGB;fill:#204a87;fill-opacity:1;fill-rule:nonzero;stroke:none;stroke-width:40;stroke-miterlimit:4;stroke-dasharray:160, 40;stroke-dashoffset:0;marker:none;marker-start:none;marker-mid:none;marker-end:none;color-rendering:auto;image-rendering:auto;shape-rendering:auto;text-rendering:auto;enable-background:accumulate"
       id="rect4149"
       width="15.152289"
       height="14.20527"
       x="180.30457"
       y="34.850262"
       rx="0"
       ry="0" />
    <rect
       style="color:#000000;clip-rule:nonzero;display:inline;overflow:visible;visibility:visible;opacity:0.924;isolation:auto;color-interpolation:sRGB;color-interpolation-filters:linearRGB;fill:#4e9a06;fill-opacity:1;fill-rule:nonzero;stroke:none;stroke-width:40;stroke-miterlimit:4;stroke-dasharray:160, 40;stroke-dashoffset:0;marker:none;marker-start:none;marker-mid:none;marker-end:none;color-rendering:auto;image-rendering:auto;shape-rendering:auto;text-rendering:auto;enable-background:accumulate"
       id="rect4155"
       width="15.152289"
       height="14.20527"
       x="197.98224"
       y="34.850262"
       rx="0"
       ry="0" />
    <rect
       ry="0"
       rx="0"
       y="34.850262"
       x="216.16499"
       height="14.20527"
       width="15.152289"
       id="rect4113"
       style="color:#000000;clip-rule:nonzero;display:inline;overflow:visible;visibility:visible;opacity:0.924;isolation:auto;color-interpolation:sRGB;color-interpolation-filters:linearRGB;fill:#204a87;fill-opacity:1;fill-rule:nonzero;stroke:none;stroke-width:40;stroke-miterlimit:4;stroke-dasharray:160, 40;stroke-dashoffset:0;marker:none;marker-start:none;marker-mid:none;marker-end:none;color-rendering:auto;image-rendering:auto;shape-rendering:auto;text-rendering:auto;enable-background:accumulate" />
    <rect
       style="color:#000000;clip-rule:nonzero;display:inline;overflow:visible;visibility:visible;opacity:0.924;isolation:auto;color-interpolation:sRGB;color-interpolation-filters:linearRGB;fill:#204a87;fill-opacity:1;fill-rule:nonzero;stroke:none;stroke-width:40;stroke-miterlimit:4;stroke-dasharray:160, 40;stroke-dashoffset:0;marker:none;marker-start:none;marker-mid:none;marker-end:none;color-rendering:auto;image-rendering:auto;shape-rendering:auto;text-rendering:auto;enable-background:accumulate"
       id="rect4169"
       width="15.152289"
       height="14.20527"
       x="30.296925"
       y="0"
       rx="0"
       ry="0" />
    <rect
       ry="0"
       rx="0"
       y="0"
       x="235.35788"
       height="14.20527"
       width="15.152289"
       id="rect4157"
       style="color:#000000;clip-rule:nonzero;display:inline;overflow:visible;visibility:visible;opacity:0.924;isolation:auto;color-interpolation:sRGB;color-interpolation-filters:linearRGB;fill:#204a87;fill-opacity:1;fill-rule:nonzero;stroke:none;stroke-width:40;stroke-miterlimit:4;stroke-dasharray:160, 40;stroke-dashoffset:0;marker:none;marker-start:none;marker-mid:none;marker-end:none;color-rendering:auto;image-rendering:auto;shape-rendering:auto;text-rendering:auto;enable-background:accumulate" />
    <rect
       style="color:#000000;clip-rule:nonzero;display:inline;overflow:visible;visibility:visible;opacity:0.924;isolation:auto;color-interpolation:sRGB;color-interpolation-filters:linearRGB;fill:#204a87;fill-opacity:1;fill-rule:nonzero;stroke:none;stroke-width:40;stroke-miterlimit:4;stroke-dasharray:160, 40;stroke-dashoffset:0;marker:none;marker-start:none;marker-mid:none;marker-end:none;color-rendering:auto;image-rendering:auto;shape-rendering:auto;text-rendering:auto;enable-background:accumulate"
       id="rect4171"
       width="15.152289"
       height="14.20527"
       x="30.296925"
       y="17.67767"
       rx="0"
       ry="0" />
    <rect
       ry="0"
       rx="0"
       y="17.67767"
       x="235.35788"
       height="14.20527"
       width="15.152289"
       id="rect4159"
       style="color:#000000;clip-rule:nonzero;display:inline;overflow:visible;visibility:visible;opacity:0.924;isolation:auto;color-interpolation:sRGB;color-interpolation-filters:linearRGB;fill:#204a87;fill-opacity:1;fill-rule:nonzero;stroke:none;stroke-width:40;stroke-miterlimit:4;stroke-dasharray:160, 40;stroke-dashoffset:0;marker:none;marker-start:none;marker-mid:none;marker-end:none;color-rendering:auto;image-rendering:auto;shape-rendering:auto;text-rendering:auto;enable-background:accumulate" />
    <rect
       style="color:#000000;clip-rule:nonzero;display:inline;overflow:visible;visibility:visible;opacity:0.924;isolation:auto;color-interpolation:sRGB;color-interpolation-filters:linearRGB;fill:#204a87;fill-opacity:1;fill-rule:nonzero;stroke:none;stroke-width:40;stroke-miterlimit:4;stroke-dasharray:160, 40;stroke-dashoffset:0;marker:none;marker-start:none;marker-mid:none;marker-end:none;color-rendering:auto;image-rendering:auto;shape-rendering:auto;text-rendering:auto;enable-background:accumulate"
       id="rect4173"
       width="15.152289"
       height="14.20527"
       x="30.296925"
       y="34.850262"
       rx="0"
       ry="0" />
    <rect
       ry="0"
       rx="0"
       y="34.850262"
       x="235.35788"
       height="14.20527"
       width="15.152289"
       id="rect4161"
       style="color:#000000;clip-rule:nonzero;display:inline;overflow:visible;visibility:visible;opacity:0.924;isolation:auto;color-interpolation:sRGB;color-interpolation-filters:linearRGB;fill:#204a87;fill-opacity:1;fill-rule:nonzero;stroke:none;stroke-width:40;stroke-miterlimit:4;stroke-dasharray:160, 40;stroke-dashoffset:0;marker:none;marker-start:none;marker-mid:none;marker-end:none;color-rendering:auto;image-rendering:auto;shape-rendering:auto;text-rendering:auto;enable-background:accumulate" />
    <rect
       style="color:#000000;clip-rule:nonzero;display:inline;overflow:visible;visibility:visible;opacity:0.924;isolation:auto;color-interpolation:sRGB;color-interpolation-filters:linearRGB;fill:#204a87;fill-opacity:1;fill-rule:nonzero;stroke:none;stroke-width:40;stroke-miterlimit:4;stroke-dasharray:160, 40;stroke-dashoffset:0;marker:none;marker-start:none;marker-mid:none;marker-end:none;color-rendering:auto;image-rendering:auto;shape-rendering:auto;text-rendering:auto;enable-background:accumulate"
       id="rect4175"
       width="15.152289"
       height="14.20527"
       x="49.489822"
       y="0"
       rx="0"
       ry="0" />
    <rect
       ry="0"
       rx="0"
       y="0"
       x="254.55078"
       height="14.20527"
       width="15.152289"
       id="rect4163"
       style="color:#000000;clip-rule:nonzero;display:inline;overflow:visible;visibility:visible;opacity:0.924;isolation:auto;color-interpolation:sRGB;color-interpolation-filters:linearRGB;fill:#204a87;fill-opacity:1;fill-rule:nonzero;stroke:none;stroke-width:40;stroke-miterlimit:4;stroke-dasharray:160, 40;stroke-dashoffset:0;marker:none;marker-start:none;marker-mid:none;marker-end:none;color-rendering:auto;image-rendering:auto;shape-rendering:auto;text-rendering:auto;enable-background:accumulate" />
    <rect
       style="color:#000000;clip-rule:nonzero;display:inline;overflow:visible;visibility:visible;opacity:0.924;isolation:auto;color-interpolation:sRGB;color-interpolation-filters:linearRGB;fill:#4e9a06;fill-opacity:1;fill-rule:nonzero;stroke:none;stroke-width:40;stroke-miterlimit:4;stroke-dasharray:160, 40;stroke-dashoffset:0;marker:none;marker-start:none;marker-mid:none;marker-end:none;color-rendering:auto;image-rendering:auto;shape-rendering:auto;text-rendering:auto;enable-background:accumulate"
       id="rect4177"
       width="15.152289"
       height="14.20527"
       x="49.489822"
       y="17.67767"
       rx="0"
       ry="0" />
    <rect
       ry="0"
       rx="0"
       y="17.67767"
       x="254.55078"
       height="14.20527"
       width="15.152289"
       id="rect4165"
       style="color:#000000;clip-rule:nonzero;display:inline;overflow:visible;visibility:visible;opacity:0.924;isolation:auto;color-interpolation:sRGB;color-interpolation-filters:linearRGB;fill:#4e9a06;fill-opacity:1;fill-rule:nonzero;stroke:none;stroke-width:40;stroke-miterlimit:4;stroke-dasharray:160, 40;stroke-dashoffset:0;marker:none;marker-start:none;marker-mid:none;marker-end:none;color-rendering:auto;image-rendering:auto;shape-rendering:auto;text-rendering:auto;enable-background:accumulate" />
    <rect
       style="color:#000000;clip-rule:nonzero;display:inline;overflow:visible;visibility:visible;opacity:0.924;isolation:auto;color-interpolation:sRGB;color-interpolation-filters:linearRGB;fill:#204a87;fill-opacity:1;fill-rule:nonzero;stroke:none;stroke-width:40;stroke-miterlimit:4;stroke-dasharray:160, 40;stroke-dashoffset:0;marker:none;marker-start:none;marker-mid:none;marker-end:none;color-rendering:auto;image-rendering:auto;shape-rendering:auto;text-rendering:auto;enable-background:accumulate"
       id="rect4179"
       width="15.152289"
       height="14.20527"
       x="49.489822"
       y="34.850262"
       rx="0"
       ry="0" />
    <rect
       ry="0"
       rx="0"
       y="34.850262"
       x="254.55078"
       height="14.20527"
       width="15.152289"
       id="rect4167"
       style="color:#000000;clip-rule:nonzero;display:inline;overflow:visible;visibility:visible;opacity:0.924;isolation:auto;color-interpolation:sRGB;color-interpolation-filters:linearRGB;fill:#204a87;fill-opacity:1;fill-rule:nonzero;stroke:none;stroke-width:40;stroke-miterlimit:4;stroke-dasharray:160, 40;stroke-dashoffset:0;marker:none;marker-start:none;marker-mid:none;marker-end:none;color-rendering:auto;image-rendering:auto;shape-rendering:auto;text-rendering:auto;enable-background:accumulate" />
  </g>
</svg>
