<?xml version="1.0" encoding="UTF-8" standalone="no"?>
<svg
   xmlns:dc="http://purl.org/dc/elements/1.1/"
   xmlns:cc="http://creativecommons.org/ns#"
   xmlns:rdf="http://www.w3.org/1999/02/22-rdf-syntax-ns#"
   xmlns:svg="http://www.w3.org/2000/svg"
   xmlns="http://www.w3.org/2000/svg"
   xmlns:sodipodi="http://sodipodi.sourceforge.net/DTD/sodipodi-0.dtd"
   xmlns:inkscape="http://www.inkscape.org/namespaces/inkscape"
   sodipodi:docname="advanced-f15.svg"
   inkscape:version="1.0beta1 (459877fba3, 2019-11-14)"
   sodipodi:version="0.32"
   id="svg2223"
   viewBox="0 0 300 42"
   height="42"
   width="300"
   version="1.1">
  <defs
     id="defs3" />
  <sodipodi:namedview
     inkscape:window-maximized="0"
     inkscape:window-y="0"
     inkscape:window-x="0"
     inkscape:window-height="1053"
     inkscape:window-width="1866"
     inkscape:guide-bbox="true"
     showguides="true"
     units="px"
     showgrid="false"
     inkscape:document-rotation="0"
     inkscape:current-layer="layer1"
     inkscape:document-units="px"
     inkscape:cy="55.122296"
     inkscape:cx="389.78452"
     inkscape:zoom="1.979899"
     inkscape:pageshadow="2"
     inkscape:pageopacity="0.0"
     borderopacity="1.0"
     bordercolor="#666666"
     pagecolor="#ffffff"
     id="base"
     inkscape:lockguides="true" />
  <metadata
     id="metadata4">
    <rdf:RDF>
      <cc:Work
         rdf:about="">
        <dc:format>image/svg+xml</dc:format>
        <dc:type
           rdf:resource="http://purl.org/dc/dcmitype/StillImage" />
        <dc:title />
      </cc:Work>
    </rdf:RDF>
  </metadata>
  <g
     id="layer1"
     inkscape:groupmode="layer"
     inkscape:label="Layer 1">
    <text
       id="text1649"
       y="6"
       x="150"
       style="font-style:normal;font-weight:normal;line-height:0%;font-family:'Liberation Sans',Arial,sans-serif;writing-mode:lr-tb;text-align:center;text-anchor:middle;fill:#000000;fill-opacity:1;stroke:none;stroke-width:3pt;stroke-linecap:butt;stroke-linejoin:miter;stroke-opacity:1"
       xml:space="preserve"><tspan
         id="tspan1651"
         sodipodi:role="line"
         y="6"
         x="150"
         style="font-size:6px;line-height:1.1;text-align:center;text-anchor:middle">Letter spacing decreased, some letter pairs manually kerned</tspan></text>
    <text
       id="text2406"
       y="34.802681"
       x="62.944992"
       style="font-style:normal;font-variant:normal;font-weight:normal;font-stretch:normal;font-size:33.6px;line-height:0%;font-family:serif;writing-mode:lr-tb;text-anchor:start;fill:#000000;fill-opacity:1;stroke:none;stroke-width:1pt;stroke-linecap:butt;stroke-linejoin:miter;stroke-opacity:1"
       xml:space="preserve"><!-- TRANSLATORS: This string is used for demonstrating letter spacing and manual kerning. Offsets are hardcoded for the English word "Inspiration" and currently can't be changed. If you translate this string, please check the output visually in advanced-f14.svg, advanced-f15.svg and advanced-f16.svg. Omit translation if in doubt. --><tspan
         dx="0 0 -0.1418031 -0.42540932 -0.42540932 0.42540932 0.42540932 -0.87514824 1.1344248 -0.5672124 -0.5672124"
         style="letter-spacing:-1.24785"
         id="tspan1647">Inspiration</tspan></text>
  </g>
</svg>
