<?xml version="1.0" encoding="UTF-8" standalone="no"?>
<svg
   xmlns:dc="http://purl.org/dc/elements/1.1/"
   xmlns:cc="http://creativecommons.org/ns#"
   xmlns:rdf="http://www.w3.org/1999/02/22-rdf-syntax-ns#"
   xmlns:svg="http://www.w3.org/2000/svg"
   xmlns="http://www.w3.org/2000/svg"
   xmlns:sodipodi="http://sodipodi.sourceforge.net/DTD/sodipodi-0.dtd"
   xmlns:inkscape="http://www.inkscape.org/namespaces/inkscape"
   version="1.1"
   width="300"
   height="147"
   viewBox="0 0 300 147"
   id="svg2476"
   sodipodi:version="0.32"
   inkscape:version="1.0beta1 (a4ee55bc41, 2019-11-15)"
   sodipodi:docname="calligraphy-f05.svg">
  <defs
     id="defs3" />
  <sodipodi:namedview
     inkscape:lockguides="true"
     id="base"
     pagecolor="#ffffff"
     bordercolor="#666666"
     borderopacity="1.0"
     inkscape:pageopacity="0.0"
     inkscape:pageshadow="2"
     inkscape:zoom="2.8"
     inkscape:cx="98.183402"
     inkscape:cy="56.877228"
     inkscape:document-units="px"
     inkscape:current-layer="layer1"
     inkscape:document-rotation="0"
     showgrid="false"
     units="px"
     showguides="true"
     inkscape:guide-bbox="true"
     inkscape:window-width="1866"
     inkscape:window-height="1016"
     inkscape:window-x="54"
     inkscape:window-y="27"
     inkscape:window-maximized="1" />
  <metadata
     id="metadata4">
    <rdf:RDF>
      <cc:Work
         rdf:about="">
        <dc:format>image/svg+xml</dc:format>
        <dc:type
           rdf:resource="http://purl.org/dc/dcmitype/StillImage" />
        <dc:title />
      </cc:Work>
    </rdf:RDF>
  </metadata>
  <g
     inkscape:label="Layer 1"
     inkscape:groupmode="layer"
     id="layer1">
    <text
       xml:space="preserve"
       style="font-style:normal;font-weight:normal;line-height:0%;font-family:'Liberation Sans',Arial,sans-serif;display:block;fill:#000000;fill-opacity:1;stroke:none;stroke-width:1pt;stroke-linecap:butt;stroke-linejoin:miter;stroke-opacity:1"
       x="20"
       y="6"
       id="text4984"><tspan
         style="font-size:6px;line-height:1.1"
         sodipodi:role="line"
         id="tspan4985"
         x="20"
         y="6">angle = 30</tspan></text>
    <text
       xml:space="preserve"
       style="font-style:normal;font-weight:normal;line-height:0%;font-family:'Liberation Sans',Arial,sans-serif;display:block;fill:#000000;fill-opacity:1;stroke:none;stroke-width:1pt;stroke-linecap:butt;stroke-linejoin:miter;stroke-opacity:1"
       x="84.742744"
       y="6"
       id="text4987"><tspan
         style="font-size:6px;line-height:1.1"
         sodipodi:role="line"
         id="tspan4988"
         x="84.742744"
         y="6">angle = 60</tspan></text>
    <text
       xml:space="preserve"
       style="font-style:normal;font-weight:normal;line-height:0%;font-family:'Liberation Sans',Arial,sans-serif;display:block;fill:#000000;fill-opacity:1;stroke:none;stroke-width:1pt;stroke-linecap:butt;stroke-linejoin:miter;stroke-opacity:1"
       x="147.24278"
       y="6"
       id="text4990"><tspan
         style="font-size:6px;line-height:1.1"
         sodipodi:role="line"
         id="tspan4991"
         x="147.24278"
         y="6">angle = 90</tspan></text>
    <text
       xml:space="preserve"
       style="font-style:normal;font-weight:normal;line-height:0%;font-family:'Liberation Sans',Arial,sans-serif;display:block;fill:#000000;fill-opacity:1;stroke:none;stroke-width:1pt;stroke-linecap:butt;stroke-linejoin:miter;stroke-opacity:1"
       x="232.24278"
       y="6"
       id="text4993"><tspan
         style="font-size:6px;line-height:1.1"
         sodipodi:role="line"
         id="tspan4994"
         x="232.24278"
         y="6">angle = 0</tspan></text>
    <text
       xml:space="preserve"
       style="font-style:normal;font-weight:normal;line-height:0%;font-family:'Liberation Sans',Arial,sans-serif;display:block;fill:#000000;fill-opacity:1;stroke:none;stroke-width:1pt;stroke-linecap:butt;stroke-linejoin:miter;stroke-opacity:1"
       x="250"
       y="92.058548"
       id="text4996"><tspan
         style="font-size:6px;line-height:1.1"
         sodipodi:role="line"
         id="tspan4997"
         x="250"
         y="92.058548">angle = 15</tspan></text>
    <text
       xml:space="preserve"
       style="font-style:normal;font-weight:normal;line-height:0%;font-family:'Liberation Sans',Arial,sans-serif;display:block;fill:#000000;fill-opacity:1;stroke:none;stroke-width:1pt;stroke-linecap:butt;stroke-linejoin:miter;stroke-opacity:1"
       x="30"
       y="134.55855"
       id="text4999"><tspan
         style="font-size:6px;line-height:1.1"
         sodipodi:role="line"
         id="tspan5000"
         x="30"
         y="134.55855">angle = −45</tspan></text>
    <path
       inkscape:connector-curvature="0"
       style="display:block;fill:#000000;fill-opacity:1;fill-rule:nonzero;stroke:none;stroke-width:1.01789pt;stroke-linecap:butt;stroke-linejoin:miter;stroke-opacity:1"
       id="path4901"
       d="m 31.722267,18.159714 c 3.562,-0.319617 14.747509,-6.223259 14.275005,0.406646 -5.55843,10.338473 -10.77404,20.905258 -15.67748,31.588083 -1.514388,3.651567 -14.286425,28.671837 -3.561217,25.87448 9.250397,-3.892297 17.81278,-8.225849 27.990728,-8.640638 2.161923,-0.12235 4.276985,0.175993 6.3814,0.617654 L 38.622362,81.001097 C 36.517947,80.559436 34.402886,80.261093 32.240962,80.383443 22.063014,80.798232 13.500631,85.131885 4.2502349,89.024081 -6.4749733,91.82154 6.2970639,66.801168 7.8114522,63.149601 12.714891,52.466776 17.930502,41.900093 23.488932,31.561518 23.961436,24.931715 12.775927,30.835255 9.2139262,31.154872 Z" />
    <path
       inkscape:connector-curvature="0"
       style="display:block;fill:#000000;fill-opacity:1;fill-rule:nonzero;stroke:none;stroke-width:1.01789pt;stroke-linecap:butt;stroke-linejoin:miter;stroke-opacity:1"
       id="path4917"
       d="m 136.2085,20.961651 c 4.35469,-12.1315828 20.50167,-2.878279 26.81616,2.218688 21.61892,25.909699 18.21002,67.698841 16.25775,98.996621 0.005,-7.10444 -0.0699,-14.20939 0.0138,-21.31343 0.003,-0.27534 33.89659,-18.977075 37.17933,-20.740259 v 22.550569 c -9.7479,5.23571 -19.88558,9.90577 -29.20243,15.90418 -0.61281,0.39453 -6.82753,5.81193 -7.74543,5.35195 -0.16852,-0.0844 -0.15431,-0.34395 -0.23147,-0.51587 -0.005,-7.92924 -0.009,-15.85847 -0.0138,-23.787709 0.50586,-8.109607 0.3265,-24.691391 0.72256,9.413719 0.0746,6.42134 0.20496,-4.06727 -0.27104,-11.750991 C 178.61587,79.240967 175.79842,59.439301 163.02466,45.730808 156.71017,40.633842 140.56319,31.380537 136.2085,43.51212 Z" />
    <path
       inkscape:connector-curvature="0"
       style="display:block;fill:#000000;fill-opacity:1;fill-rule:nonzero;stroke:none;stroke-width:1.01789pt;stroke-linecap:butt;stroke-linejoin:miter;stroke-opacity:1"
       id="path4927"
       d="m 209.76348,12.884006 c -60.54549,-0.897471 23.86647,-0.135684 37.27273,1.998723 15.92628,3.096514 8.68794,22.189934 5.6796,33.022896 -0.76243,4.725744 -3.96094,10.48169 -2.31463,15.382612 0.40034,1.191844 4.23064,2.27854 2.97405,2.319866 -6.43322,0.21172 -12.89678,0.383845 -19.30933,-0.173244 -0.86356,-0.07502 0.58788,0.532965 10.72311,-3.086641 7.46588,-2.666354 14.6998,-5.862926 21.92538,-9.108866 h 22.55049 c -15.45148,6.941276 -73.6782,33.235432 -59.09956,-5.333727 3.00836,-10.832962 10.24668,-29.926382 -5.6796,-33.022896 -6.69095,-1.065219 -13.41828,-1.507083 -20.18003,-1.858865 -3.43274,-0.178537 -13.74324,-0.343639 -10.3059,-0.3585 6.77704,-0.02921 13.5542,-0.01893 20.33129,-0.0079 1.42241,0.0022 -2.84061,0.18383 -4.26301,0.189225 -7.61831,0.02901 -15.23672,0.02494 -22.85508,0.03736 z" />
    <path
       inkscape:connector-curvature="0"
       style="display:block;fill:#000000;fill-opacity:1;fill-rule:nonzero;stroke:none;stroke-width:1.01789pt;stroke-linecap:butt;stroke-linejoin:miter;stroke-opacity:1"
       id="path4942"
       d="m 5.9404788,108.40251 c 8.6437522,-5.5144 18.2757752,-7.08622 28.3972332,-6.38775 20.230519,1.7187 29.930803,15.74478 43.728922,29.70683 0.743932,0.75282 2.937,3.04846 2.186604,2.30215 -25.677688,-25.53858 -13.756802,-12.88828 -5.991751,-8.16182 16.483033,9.9364 30.935523,1.43695 45.621613,-7.36391 l 15.94561,15.94561 c -14.6861,8.80085 -29.13858,17.30031 -45.621614,7.3639 -10.205836,-6.21216 -17.26879,-15.07236 -25.899463,-23.72939 -0.747221,-0.74957 -2.942823,-3.04256 -2.186604,-2.30215 4.611251,4.51504 9.171038,9.0823 13.752944,13.62706 1.52741,1.51503 -3.058048,-3.04786 -4.783407,-4.33294 -6.029056,-4.49061 -13.457995,-6.28046 -20.807251,-7.10973 -10.121458,-0.69848 -19.753481,0.87334 -28.397234,6.38774 z" />
    <path
       inkscape:connector-curvature="0"
       style="display:block;fill:#000000;fill-opacity:1;fill-rule:nonzero;stroke:none;stroke-width:1.01789pt;stroke-linecap:butt;stroke-linejoin:miter;stroke-opacity:1"
       id="path4945"
       d="M 70.580994,25.491248 C 75.841648,18.768105 81.443919,12.057889 90.133666,10.01041 111.39329,9.8535535 104.40691,42.682542 102.98477,55.51606 c 0.197,7.695835 -8.984986,48.47981 10.3232,34.150308 13.44819,-10.86238 8.65366,-11.149831 18.94556,-2.475297 5.40255,2.981797 11.44951,0.345674 16.6696,-1.779979 l -11.27525,19.529278 c -5.22009,2.12576 -11.26705,4.76178 -16.66959,1.77998 -10.29191,-8.674534 -5.49738,-8.387083 -18.94556,2.4753 C 82.724539,123.52515 91.90652,82.741276 91.709528,75.045339 93.131658,62.211822 100.11805,29.382833 78.858425,29.539689 70.16867,31.587168 64.566403,38.297384 59.30575,45.020527 Z" />
    <path
       inkscape:connector-curvature="0"
       style="display:block;fill:#000000;fill-opacity:1;fill-rule:nonzero;stroke:none;stroke-width:1.01789pt;stroke-linecap:butt;stroke-linejoin:miter;stroke-opacity:1"
       id="path4983"
       d="m 165.07735,145.49197 c 16.38715,-12.87129 39.27304,-17.26754 59.64776,-18.36289 14.94866,-1.26004 29.51488,4.20123 44.39626,3.7668 2.85875,-0.0835 5.48837,-0.38833 8.28677,-0.99224 1.42317,-0.3071 5.63948,-1.45191 4.22326,-1.11418 -5.88357,1.40306 -11.75085,2.8736 -17.62628,4.31034 21.02971,-9.65058 18.09158,-25.34273 -4.6441,-26.97715 -10.02486,-1.3373 -43.02123,8.15419 -4.05593,-2.18235 l -21.7821,5.83646 c 15.66671,-4.22769 31.19966,-9.889994 47.62013,-9.49057 22.73567,1.63442 25.6738,17.32647 4.64411,26.97715 -8.62188,2.44741 -23.31882,7.85534 -34.33207,9.17401 -16.23236,1.94356 -32.23167,-4.985 -48.51214,-3.4717 -9.56772,0.51433 -30.44891,5.99749 4.19657,-3.56922 1.24081,-0.34262 -2.48361,0.68178 -3.70697,1.08232 -5.98622,1.95994 -11.93306,4.85511 -16.57317,9.17665 z" />
  </g>
</svg>
